// Jest Snapshot v1, https://goo.gl/fbAQLP

exports[`<Search /> clears results properly 1`] = `
.c0 {
  position: absolute;
  width: 100%;
}

<Search__ResultList>
  <StyledComponent
    forwardedComponent={
      Object {
        "$$typeof": Symbol(react.forward_ref),
        "attrs": Array [],
        "componentStyle": ComponentStyle {
          "componentId": "Search__ResultList-g0h46i-1",
          "isStatic": true,
          "lastClassName": "c0",
          "rules": Array [
            "position:absolute;width:100%;",
          ],
        },
        "displayName": "Search__ResultList",
        "foldedComponentIds": Array [],
        "render": [Function],
        "styledComponentId": "Search__ResultList-g0h46i-1",
        "target": "div",
        "toString": [Function],
        "warnTooManyClasses": [Function],
        "withComponent": [Function],
      }
    }
    forwardedRef={null}
  >
    <div
      className="c0"
    />
  </StyledComponent>
</Search__ResultList>
`;

exports[`<Search /> renders 1`] = `
<Inputs__LoadingInput
  aria-activedescendant={null}
  aria-autocomplete="list"
  aria-controls={null}
  aria-labelledby="downshift-0-label"
  autoComplete="off"
  className=""
  id="search"
  loading={false}
  name="search"
  onBlur={[Function]}
  onChange={[Function]}
  onKeyDown={[Function]}
  placeholder="Search..."
  theme={
    Object {
      "colors": Object {
        "loading": "lightblue",
      },
    }
  }
  type="search"
  value=""
>
  <StyledComponent
    aria-activedescendant={null}
    aria-autocomplete="list"
    aria-controls={null}
    aria-labelledby="downshift-0-label"
    autoComplete="off"
    className=""
    forwardedComponent={
      Object {
        "$$typeof": Symbol(react.forward_ref),
        "attrs": Array [],
        "componentStyle": ComponentStyle {
          "componentId": "Inputs__LoadingInput-l0g9xo-0",
          "isStatic": false,
          "lastClassName": "gKjPGg",
          "rules": Array [
            "&:focus{border-color:",
            [Function],
            ";}",
          ],
        },
        "defaultProps": Object {
          "theme": Object {
            "colors": Object {
              "loading": "lightblue",
            },
          },
        },
        "displayName": "Inputs__LoadingInput",
        "foldedComponentIds": Array [],
        "render": [Function],
        "styledComponentId": "Inputs__LoadingInput-l0g9xo-0",
        "target": "input",
        "toString": [Function],
        "warnTooManyClasses": [Function],
        "withComponent": [Function],
      }
    }
    forwardedRef={null}
    id="search"
    loading={false}
    name="search"
    onBlur={[Function]}
    onChange={[Function]}
    onKeyDown={[Function]}
    placeholder="Search..."
    theme={
      Object {
        "colors": Object {
          "loading": "lightblue",
        },
      }
    }
    type="search"
    value=""
  >
    <input
      aria-activedescendant={null}
      aria-autocomplete="list"
      aria-controls={null}
      aria-labelledby="downshift-0-label"
      autoComplete="off"
      className=""
      id="search"
      name="search"
      onBlur={[Function]}
      onChange={[Function]}
      onKeyDown={[Function]}
      placeholder="Search..."
      type="search"
      value=""
    />
  </StyledComponent>
</Inputs__LoadingInput>
`;

exports[`<Search /> renders 2`] = `
.c0 {
  position: absolute;
  width: 100%;
}

<Search__ResultList>
  <StyledComponent
    forwardedComponent={
      Object {
        "$$typeof": Symbol(react.forward_ref),
        "attrs": Array [],
        "componentStyle": ComponentStyle {
          "componentId": "Search__ResultList-g0h46i-1",
          "isStatic": true,
          "lastClassName": "c0",
          "rules": Array [
            "position:absolute;width:100%;",
          ],
        },
        "displayName": "Search__ResultList",
        "foldedComponentIds": Array [],
        "render": [Function],
        "styledComponentId": "Search__ResultList-g0h46i-1",
        "target": "div",
        "toString": [Function],
        "warnTooManyClasses": [Function],
        "withComponent": [Function],
      }
    }
    forwardedRef={null}
  >
    <div
      className="c0"
    />
  </StyledComponent>
</Search__ResultList>
`;

exports[`<Search /> renders no results properly 1`] = `
.c0 {
  position: absolute;
  width: 100%;
}

.c1 {
  background: none;
  width: 100%;
  margin: 5px 0;
  padding: 10px;
}

.c1 p {
  margin: 0;
}

<Search__ResultList>
  <StyledComponent
    forwardedComponent={
      Object {
        "$$typeof": Symbol(react.forward_ref),
        "attrs": Array [],
        "componentStyle": ComponentStyle {
          "componentId": "Search__ResultList-g0h46i-1",
          "isStatic": true,
          "lastClassName": "c0",
          "rules": Array [
            "position:absolute;width:100%;",
          ],
        },
        "displayName": "Search__ResultList",
        "foldedComponentIds": Array [],
        "render": [Function],
        "styledComponentId": "Search__ResultList-g0h46i-1",
        "target": "div",
        "toString": [Function],
        "warnTooManyClasses": [Function],
        "withComponent": [Function],
      }
    }
    forwardedRef={null}
  >
    <div
      className="c0"
    >
      <Search__ResultItem
        highlighted={false}
        theme={
          Object {
            "colors": Object {
              "focus": "#444444",
            },
          }
        }
      >
        <StyledComponent
          forwardedComponent={
            Object {
              "$$typeof": Symbol(react.forward_ref),
              "attrs": Array [],
              "componentStyle": ComponentStyle {
                "componentId": "Search__ResultItem-g0h46i-2",
                "isStatic": false,
                "lastClassName": "c1",
                "rules": Array [
                  "background:",
                  [Function],
                  ";width:100%;margin:5px 0;padding:10px;p{margin:0;}",
                ],
              },
              "defaultProps": Object {
                "highlighted": false,
                "theme": Object {
                  "colors": Object {
                    "focus": "#444444",
                  },
                },
              },
              "displayName": "Search__ResultItem",
              "foldedComponentIds": Array [],
              "render": [Function],
              "styledComponentId": "Search__ResultItem-g0h46i-2",
              "target": "div",
              "toString": [Function],
              "warnTooManyClasses": [Function],
              "withComponent": [Function],
            }
          }
          forwardedRef={null}
          highlighted={false}
          theme={
            Object {
              "colors": Object {
                "focus": "#444444",
              },
            }
          }
        >
          <div
            className="c1"
          >
            Nothing Found for "
            asd
            "
          </div>
        </StyledComponent>
      </Search__ResultItem>
    </div>
  </StyledComponent>
</Search__ResultList>
`;

exports[`<Search /> renders results properly 1`] = `
.c0:focus {
  border-color: lightblue;
}

<Inputs__LoadingInput
  aria-activedescendant={null}
  aria-autocomplete="list"
  aria-controls="downshift-0-menu"
  aria-labelledby="downshift-0-label"
  autoComplete="off"
  className="loading"
  id="search"
  loading={true}
  name="search"
  onBlur={[Function]}
  onChange={[Function]}
  onKeyDown={[Function]}
  placeholder="Search..."
  theme={
    Object {
      "colors": Object {
        "loading": "lightblue",
      },
    }
  }
  type="search"
  value="baobab"
>
  <StyledComponent
    aria-activedescendant={null}
    aria-autocomplete="list"
    aria-controls="downshift-0-menu"
    aria-labelledby="downshift-0-label"
    autoComplete="off"
    className="loading"
    forwardedComponent={
      Object {
        "$$typeof": Symbol(react.forward_ref),
        "attrs": Array [],
        "componentStyle": ComponentStyle {
          "componentId": "Inputs__LoadingInput-l0g9xo-0",
          "isStatic": false,
          "lastClassName": "c0",
          "rules": Array [
            "&:focus{border-color:",
            [Function],
            ";}",
          ],
        },
        "defaultProps": Object {
          "theme": Object {
            "colors": Object {
              "loading": "lightblue",
            },
          },
        },
        "displayName": "Inputs__LoadingInput",
        "foldedComponentIds": Array [],
        "render": [Function],
        "styledComponentId": "Inputs__LoadingInput-l0g9xo-0",
        "target": "input",
        "toString": [Function],
        "warnTooManyClasses": [Function],
        "withComponent": [Function],
      }
    }
    forwardedRef={null}
    id="search"
    loading={true}
    name="search"
    onBlur={[Function]}
    onChange={[Function]}
    onKeyDown={[Function]}
    placeholder="Search..."
    theme={
      Object {
        "colors": Object {
          "loading": "lightblue",
        },
      }
    }
    type="search"
    value="baobab"
  >
    <input
      aria-activedescendant={null}
      aria-autocomplete="list"
      aria-controls="downshift-0-menu"
      aria-labelledby="downshift-0-label"
      autoComplete="off"
      className="loading c0"
      id="search"
      name="search"
      onBlur={[Function]}
      onChange={[Function]}
      onKeyDown={[Function]}
      placeholder="Search..."
      type="search"
      value="baobab"
    />
  </StyledComponent>
</Inputs__LoadingInput>
`;

exports[`<Search /> renders results properly 2`] = `
.c0 {
  position: absolute;
  width: 100%;
}

.c1 {
  background: none;
  width: 100%;
  margin: 5px 0;
  padding: 10px;
}

.c1 p {
  margin: 0;
}

<Search__ResultList>
  <StyledComponent
    forwardedComponent={
      Object {
        "$$typeof": Symbol(react.forward_ref),
        "attrs": Array [],
        "componentStyle": ComponentStyle {
          "componentId": "Search__ResultList-g0h46i-1",
          "isStatic": true,
          "lastClassName": "c0",
          "rules": Array [
            "position:absolute;width:100%;",
          ],
        },
        "displayName": "Search__ResultList",
        "foldedComponentIds": Array [],
        "render": [Function],
        "styledComponentId": "Search__ResultList-g0h46i-1",
        "target": "div",
        "toString": [Function],
        "warnTooManyClasses": [Function],
        "withComponent": [Function],
      }
    }
    forwardedRef={null}
  >
    <div
      className="c0"
    >
      <Search__ResultItem
        highlighted={false}
        key="cjp95iswff52k0a62lzy1kb17"
        theme={
          Object {
            "colors": Object {
              "focus": "#444444",
            },
          }
        }
      >
        <StyledComponent
          forwardedComponent={
            Object {
              "$$typeof": Symbol(react.forward_ref),
              "attrs": Array [],
              "componentStyle": ComponentStyle {
                "componentId": "Search__ResultItem-g0h46i-2",
                "isStatic": false,
                "lastClassName": "c1",
                "rules": Array [
                  "background:",
                  [Function],
                  ";width:100%;margin:5px 0;padding:10px;p{margin:0;}",
                ],
              },
              "defaultProps": Object {
                "highlighted": false,
                "theme": Object {
                  "colors": Object {
                    "focus": "#444444",
                  },
                },
              },
              "displayName": "Search__ResultItem",
              "foldedComponentIds": Array [],
              "render": [Function],
              "styledComponentId": "Search__ResultItem-g0h46i-2",
              "target": "div",
              "toString": [Function],
              "warnTooManyClasses": [Function],
              "withComponent": [Function],
            }
          }
          forwardedRef={null}
          highlighted={false}
          theme={
            Object {
              "colors": Object {
                "focus": "#444444",
              },
            }
          }
        >
          <div
            className="c1"
          >
            <Item
              aria-selected={false}
              highlighted={false}
              id="downshift-0-item-0"
              item={
                Object {
                  "__typename": "Item",
                  "id": "cjp95iswff52k0a62lzy1kb17",
                  "title": "Booger",
                }
              }
              onClick={[Function]}
              onMouseDown={[Function]}
              onMouseMove={[Function]}
              role="option"
            >
              <div>
                <p>
                  Booger
                </p>
              </div>
            </Item>
          </div>
        </StyledComponent>
      </Search__ResultItem>
      <Search__ResultItem
        highlighted={false}
        key="cjp95j3406vrf0a364a7kkv72"
        theme={
          Object {
            "colors": Object {
              "focus": "#444444",
            },
          }
        }
      >
        <StyledComponent
          forwardedComponent={
            Object {
              "$$typeof": Symbol(react.forward_ref),
              "attrs": Array [],
              "componentStyle": ComponentStyle {
                "componentId": "Search__ResultItem-g0h46i-2",
                "isStatic": false,
                "lastClassName": "c1",
                "rules": Array [
                  "background:",
                  [Function],
                  ";width:100%;margin:5px 0;padding:10px;p{margin:0;}",
                ],
              },
              "defaultProps": Object {
                "highlighted": false,
                "theme": Object {
                  "colors": Object {
                    "focus": "#444444",
                  },
                },
              },
              "displayName": "Search__ResultItem",
              "foldedComponentIds": Array [],
              "render": [Function],
              "styledComponentId": "Search__ResultItem-g0h46i-2",
              "target": "div",
              "toString": [Function],
              "warnTooManyClasses": [Function],
              "withComponent": [Function],
            }
          }
          forwardedRef={null}
          highlighted={false}
          theme={
            Object {
              "colors": Object {
                "focus": "#444444",
              },
            }
          }
        >
          <div
            className="c1"
          >
            <Item
              aria-selected={false}
              highlighted={false}
              id="downshift-0-item-1"
              item={
                Object {
                  "__typename": "Item",
                  "id": "cjp95j3406vrf0a364a7kkv72",
                  "title": "fart",
                }
              }
              onClick={[Function]}
              onMouseDown={[Function]}
              onMouseMove={[Function]}
              role="option"
            >
              <div>
                <p>
                  fart
                </p>
              </div>
            </Item>
          </div>
        </StyledComponent>
      </Search__ResultItem>
    </div>
  </StyledComponent>
</Search__ResultList>
`;
